{
  "storagePath": "$MAUM_ROOT/run/storage",
  "restApiKey": "7c3a778e29ac522de62c4e22aa90c9",
  "restApiRoot": "/api/console/v3",
  "host": "0.0.0.0",
  "port": 9920,
  "url": "http://0.0.0.0:9920",
  "appUrl": "http://0.0.0.0:9920",
  "remoting": {
    "context": false,
    "rest": {
      "handleErrors": false,
      "normalizeHttpPath": false,
      "xml": false
    },
    "json": {
      "strict": false,
      "limit": "100kb"
    },
    "urlencoded": {
      "extended": true,
      "limit": "100kb"
    }
  },
  "grpc": {
    "protos": {
      "entry": "include"
    },
    "hosts": {
      "maum.m2u.console.*": "localhost:9922",
      "maum.m2u.facade.*": "localhost:9901",
      "maum.brain.hmd.*": "localhost:9815",
      "maum.brain.stt.*": "localhost:9801",
      "maum.brain.nlp.*": "localhost:9823",
      "*": "localhost:9922"
    }
  }
}
