{
  "_meta": {
    "sources": [
      "loopback/common/models",
      "loopback/server/models",
      "../common/models",
      "./models"
    ],
    "mixins": [
      "loopback/common/mixins",
      "loopback/server/mixins",
      "../common/mixins",
      "./mixins"
    ]
  },
  "AccessToken": {
    "dataSource": "mindslab",
    "public": false,
    "relations": {
      "user": {
        "type": "belongsTo",
        "model": "ConsoleUser",
        "foreignKey": "userId"
      }
    }
  },
  "ACL": {
    "dataSource": "mindslab",
    "public": false
  },
  "RoleMapping": {
    "dataSource": "mindslab",
    "public": false
  },
  "Role": {
    "dataSource": "mindslab",
    "public": false
  },
  "PasswordHistory": {
    "dataSource": "mindslab",
    "public": false
  },
  "ConsoleUser": {
    "dataSource": "mindslab",
    "public": true
  },
  "SignInHistory": {
    "dataSource": "mindslab",
    "public": true
  },
  "Engine": {
    "dataSource": "mindslab",
    "public": true
  },
  "LoopConfigFile": {
    "dataSource": null,
    "public": true
  },
  "Grpc": {
    "dataSource": null,
    "public": true
  },
  "Statistics": {
    "dataSource": null,
    "public": true,
    "targetDataSource": "mindslab"
  }
}
