{
  "name": "m2u",
  "maum_submodules": [
    "maum-stt",
    "maum-ta",
    "maum-sds"
  ],
  "production": {
    "ubuntu": {
      "os_name": "ubuntu",
      "os_version": "16.04",
      "pre_install": [
        "curl -sL https://deb.nodesource.com/setup_6.x | sudo -E bash -",
        "sudo dpkg -i cuda-repo-ubuntu1604_8.0.44-1_amd64.deb"
      ],
      "repositories": null,
      "os_packages": [
      ],
      "node_packages": [
      ],
      "python_packages": [
      ],
      "post_install": [
        "sudo ldconfig"
      ]
    },
    "centos": {
    }
  },
  "development": {
    "ubuntu": {
      "os_name": "ubuntu",
      "os_version": "16.04",
      "pre_install": [
        "curl -sL https://deb.nodesource.com/setup_6.x | sudo -E bash -",
        "sudo dpkg -i cuda-repo-ubuntu1604_8.0.44-1_amd64.deb"
      ],
      "repositories": [
      ],
      "os_packages": [
        "gcc-4.8",
        "g++-4.8",
        "make",
        "cmake",
        "autoconf",
        "automake",
        "libtool",
        "python-pip",
        "python-dev",
        "openmpi-common",
        "libboost-all-dev",
        "libcurl4-openssl-dev",
        "libsqlite3-dev",
        "libmysqlclient-dev",
        "libuv-dev", "libssl-dev",
        "libarchive13",
        "libarchive-dev",
        "libatlas-base-dev",
        "libatlas-dev",
        "libasio-dev",
        "docker.io",
        "unzip",
        "nginx",
        "ffmpeg"
      ],
      "node_packages": [
        "@angular/cli@1.0.0"
      ],
      "python_packages": [
        "boto3",
        "grpcio==1.4.0",
        "requests",
        "numpy",
        "theano",
        "gensim==2.2.0"
      ],
      "post_install": [
        "sudo ldconfig"
      ]
    },
    "centos": {
    }
  }
}
